# $FreeBSD: stable/10/share/syscons/fonts/iso-8x14.fnt 86796 2001-11-22 23:39:06Z ache $
begin 644 iso-8x14
M````````````````````````````````````````````````````````````
M````````````````````````````````````````````````````````````
M````````````````````````````````````````````````````````````
M````````````````````````````````````````````````````````````
M````````````````````````````````````````````````````````````
M````````````````````````````````````````````````````````````
M````````````````````````````````````````````````````````````
M````````````````````````````````````````````````````````````
M````````````````````````````````````````````````````````````
M````````````````````````````````````````````````````````````
M```````````````````8/#P\&!@`&!@`````9F9F)```````````````-C9_
M-C8V?S8V````"`@^8V!@/@,#8SX("`````!A8P8,&#!C0P``````'#8V'#MN
M9F8[`````#`P,&````````````````P8,#`P,#`8#```````,!@,#`P,#!@P
M`````````&8\?CQF````````````&!A^&!@`````````````````&!@8,```
M````````?@`````````````````````8&````````0,&#!@P8$`````````^
M8V=O>W-C8SX```````P</`P,#`P,/P``````/F,#!@P8,&-_```````^8P,#
M'@,#8SX```````8.'C9F?P8&#P``````?F!@8'X#`V,^```````<,&!@?F-C
M8SX``````']C`P8,&!@8&```````/F-C8SYC8V,^```````^8V-C/P,#!AP`
M````````&!@````8&``````````8&````!@8,``````&#!@P8#`8#`8`````
M````?@```'X`````````8#`8#`8,&#!@```````^8V,&#`P`#`P``````#YC
M8V]O;VY@/@``````"!PV8V-_8V-C``````!^,S,S/C,S,WX``````!XS8&!@
M8&`S'@``````?#8S,S,S,S9\``````!_,S`T/#0P,W\``````'\S,#0\-#`P
M>```````'C-@8&!O8S,=``````!C8V-C?V-C8V,``````#P8&!@8&!@8/```
M````#P8&!@8&9F8\``````!S,S8V/#8V,W,``````'@P,#`P,#`S?P``````
M8W=_:V-C8V-C``````!C<WM_;V=C8V,``````!PV8V-C8V,V'```````?C,S
M,SXP,#!X```````<-F-C8V-K/AP&`P```'XS,S,^-C,S<P``````/F-C,!P&
M8V,^``````!^6A@8&!@8&#P``````&-C8V-C8V-C/@``````8V-C8V-C-AP(
M``````!C8V-C8VMK?S8``````&-C8S8<-F-C8P``````9F9F9F8\&!@\````
M``!_8P8,&#!@8W\``````#PP,#`P,#`P/```````0&`P&`P&`P$````````\
M#`P,#`P,##P````('#9C``````````````````````````````#_&!@,````
M`````````````````#P&/F9F.P``````<#`P/C,S,S-N```````````^8V!@
M8SX```````X&!CYF9F9F.P``````````/F-_8&,^```````>,S!\,#`P,'@`
M`````````#MF9F8^!F8\````<#`P-CLS,S-S```````,#``<#`P,#!X`````
M``P,`!P,#`P,#,QX````<#`P,S8\-C-S```````<#`P,#`P,#!X`````````
M`&9_:VMK:P``````````;C,S,S,S```````````^8V-C8SX``````````&XS
M,S,^,#!X````````.V9F9CX&!@\```````!N,S`P,'@``````````#YC.`YC
M/@````````@8?A@8&!L.``````````!F9F9F9CL``````````&-C8S8<"```
M````````8V-K:W\V``````````!C-AP<-F,``````````&-F9F8^!F8\````
M````?V8,&#-_```````.&!@8<!@8&`X``````!@8&!@8&!@8&```````<!@8
M&`X8&!AP```````[;@``````````````````````````````````````````
M````````````````````````````````````````````````````````````
M````````````````````````````````````````````````````````````
M````````````````````````````````````````````````````````````
M````````````````````````````````````````````````````````````
M````````````````````````````````````````````````````````````
M````````````````````````````````````````````````````````````
M````````````````````````````````````````````````````````````
M````````````````````````````````````````````````````````````
M````````````````````````````````````````````````````````````
M````````````````````````````````````````````````````````````
M````````&!@`&!@\/#P8````````"`@^8V!@8SX("````!PV,#!\,#!S?@``
M`````$(\9F9F/$(```````!F9F8\&'X8?A@``````!@8&!@`&!@8&``````^
M8S`<-F-C-AP&8SX``&-C```````````````````^05U145U!/@`````X!#Q$
M/`!\`````````````!LV;#8;``````````````!_`P,``````````````'\`
M````````````/D%=55E503X`````?@`````````````````X;&PX````````
M`````````!@8?A@8`'X`````.&P8,&1\``````````!\##@,;#@`````````
M``8,&````````````````````&9F9F9F.V#`````?]O;VWL;&QL;````````
M```8&```````````````````````#`P&'``P<#`P,'@``````````#A$1$0X
M`'P`````````````;#8;-FP```````!@X&-F;!@S9\\?`P,``&#@8V9L&#!N
MPP8,'P``\#!C]FP8,V?/'P,#````&!@`&!@P8V,^````8#`8`!PV8V-_8V,`
M```#!@P`'#9C8W]C8P````@<-@`<-F-C?V-C````.VX`"!PV8V-_8V,`````
M8V,('#9C8W]C8P```!PV'``<-F-C?V-C```````?-F9F9WYF9F<``````!XS
M8&!@8&`S'@P&'&`P&`!_,S`^,#-_````!@P8`'\S,#XP,W\````('#8`?S,P
M/C`S?P````!C8P!_,S`^,#-_````8#`8`#P8&!@8&#P````&#!@`/!@8&!@8
M/````!@\9@`\&!@8&!@\`````&9F`#P8&!@8&#P``````#PV,S-[,S,V/```
M`#MN`&-S>W]O9V-C````8#`8`!PV8V-C-AP````#!@P`'#9C8V,V'`````@<
M-@`<-F-C8S8<`````#MN`!PV8V-C-AP`````8V,`'#9C8V,V'````````&,V
M'`@<-F,```````,>-F=O:WMS-CQ@``!@,!@`8V-C8V-C/@````,&#`!C8V-C
M8V,^````"!PV`&-C8V-C8SX`````8V,`8V-C8V-C/@````8,&`!F9F8\&!@\
M`````'@P/C,S/C`P,'@``````!PV8V9L9V-K;F!@``!@,!@`/`8^9F8[````
M``8,&``\!CYF9CL`````"!PV`#P&/F9F.P``````.VX`/`8^9F8[``````!F
M9@`\!CYF9CL`````'#8<`#P&/F9F.P``````````=@L[;F@W```````````^
M8V!@8SX,!AP`,!@,`#YC?V!C/@`````#!@P`/F-_8&,^``````@<-@`^8W]@
M8SX``````&-C`#YC?V!C/@````!@,!@`.!@8&!@\``````8,&``X&!@8&#P`
M````&#QF`#@8&!@8/```````9F8`.!@8&!@\```````V'#8&/F9F9CP`````
M`#MN`&XS,S,S,P````!@,!@`/F-C8V,^``````8,&``^8V-C8SX`````"!PV
M`#YC8V-C/@``````.VX`/F-C8V,^``````!C8P`^8V-C8SX``````!@8``!^
M```8&``````````#/F=O>W,^8````&`P&`!F9F9F9CL`````!@P8`&9F9F9F
M.P`````8/&8`9F9F9F8[``````!F9@!F9F9F9CL`````!@P8`&-F9F8^!F8\
=`````'@P/C,S,S,^,'@```!F9@!F9F9F/@9F/```
`
end
