# $FreeBSD: stable/10/share/syscons/fonts/iso04-vga9-8x14.fnt 86796 2001-11-22 23:39:06Z ache $
begin 644 iso04-vga9-8x14
M````````````````````````````````````````````````````````````
M````````````````````````````````````````````````````````````
M````````````````````````````````````````````````````````````
M````````````````````````````````````````````````````````````
M````````````````````````````````````````````````````````````
M````````````````````````````````````````````````````````````
M````````````````````````````````````````````````````````````
M````````````````````````````````````````````````````````````
M````````````````````````````````````````````````````````````
M````````````````````````````````````````````````````````````
M```````````````````8/#P\/!@8`!@8````[NYFS```````````````;&QL
M_FQL_FQL;````!A^V]O8>!P>F]M^&!@``.:F[!P8,'!NRLX`````.&PX,'9^
MS,S,=@```#@X&#````````````````P8,#`P,#`P&`P`````,!@,#`P,#`P8
M,`````````!L./XX;````````````!@8?A@8```````````````````X.!@P
M`````````/X`````````````````````.#@`````!@8,#!@P,&#`P`````!\
MQL[6UM;6YL9\`````!@X>!@8&!@8&'X`````?,;&!@P8,&#&_@````!\Q@8&
M/`8&!L9\``````P</&S,S/X,#!X`````_L#`P/P&!L;&?`````!\QL#`_,;&
MQL9\`````/[&!@P8,#`P,#``````?,;&QGS&QL;&?`````!\QL;&QGX&!L9\
M`````````#@X````.#@`````````.#@````X.!@P````#!@P8&`P&`P`````
M``````#^`/X``````````&`P&`P,&#!@``````!\QL8,&!@8`!@8`````'S&
MQL;>WM[<P'X`````.&S&QL;^QL;&Q@````#\9F9F?&9F9F;\`````#QFPL#`
MP,#"9CP`````^&QF9F9F9F9L^`````#^9F!@?&!@8&;^`````/YF8&!\8&!@
M8/``````?,;&P,#.QL;&?`````#&QL;&_L;&QL;&`````#P8&!@8&!@8&#P`
M````/!@8&!@8&-C8<`````#&QLS8\/#8S,;&`````/!@8&!@8&!B9OX`````
MQL;N[O[6UL;&Q@````#&QN;F]M[.SL;&`````'S&QL;&QL;&QGP`````_&9F
M9F9\8&!@\`````!\QL;&QL;&UMY\!@```/QF9F9\>&QF9N8`````?,;`P'`<
M!@;&?`````#_VYD8&!@8&!@\`````,;&QL;&QL;&QGP`````QL;&QL;&QFPX
M$`````#&QL;6UM;^[L;&`````,;&QFPX.&S&QL8`````9F9F9F8\&!@8/```
M``#^QH8,&#!@PL;^`````'Q@8&!@8&!@8'P`````P,!@8#`8&`P&!@````!\
M#`P,#`P,#`Q\````$#ALQ@````````````````````````````#_`#@X,!@`
M`````````````````'@,?,S,S'8`````X&!@?&9F9F9F_`````````!\QL#`
MP,9\`````!P,#'S,S,S,S'X`````````?,;&_L#&?``````<-C`P_#`P,#!X
M`````````';.QL;&SG8&_```X&!@?&9F9F9FY@`````8&``X&!@8&!@\````
M``P,`!P,#`P,#,S,>```X&!@9F9L>&QFY@`````X&!@8&!@8&!@\````````
M`.S^UM;&QL8`````````W&9F9F9F9@````````!\QL;&QL9\`````````-QF
M9F9F9GQ@\```````=LS,S,S,?`P.``````#<9F!@8&#P`````````'S&P'P&
MQGP`````,#`P_#`P,#`V'`````````#,S,S,S,QV`````````,;&QL9L.!``
M````````QL;6UM;^;`````````#&QFPX;,;&`````````,;&;&PX,#!@P```
M````_H8,&#!B_@`````.&!@8<!@8&!@.`````!@8&!@8&!@8&!@`````<!@8
M&`X8&!@8<````';<`````````````````````````````````'P`.'S&QL;^
MQL;&Q@``#!@0.&S&QO[&QL;&```X;!`X;,;&_L;&QL8``';<$#ALQL;^QL;&
MQ@``QL8X;,;&QO[&QL;&```X;#@0.&S&_L;&QL8`````/VS,S/_,S,S,SP``
M```\&!@8&!@8&!@\,!YF/#QFPL#`P,#"9CP```X8_F9@8'Q@8&!F_@````#^
M9F!@?&!@8&;^,!YL`/YF8&!\8&!@9OX``!@8_F9@8'Q@8&!F_@``#!@@/!@8
M&!@8&!@\```\9@`\&!@8&!@8&#P``'X`/!@8&!@8&!@8/`````#X;&9F]O9F
M9FSX`````,;&YN;VWL[.QL8,>'P`?,;&QL;&QL;&?`````#&QLS8\/#8S,;&
M#'@X;`!\QL;&QL;&QGP``';<`'S&QL;&QL;&?```;&P`?,;&QL;&QL9\````
M`````&8\&#QF``````($?,[.UM;6UN;F?$"```#&QL;&QL;&QL9\,!P,&,;&
MQL;&QL;&QGP``#AL`,;&QL;&QL;&?```QL8`QL;&QL;&QL9\``!VW`#&QL;&
MQL;&QGP``'P`QL;&QL;&QL;&?`````!XS,S,V,S&QL;,````````````````
M`,;^````.'S&QL;^QL;&SA@.``````#F;'AX;&;F`````/QF9F9\>&QF9N8,
M>```````QGS&QL9\Q@``=MP`/!@8&!@8&!@\`````/!@8&!@8&!B9OX,>`!\
MQF`X;,;&;#C.QGP``&QL``````````````!L.`!\QL9@.`P&QGP``'P`_F9@
M8'Q@8&!F_@````!\QL;`P,[&QL9\#'@``/_;F1@>/'@8&#P`````````````
M?```````9CP`_L8,&#!@P,;^``!\```````````````````X;&PX````````
M``````````!X#'S,S,QV&`X``````````````!@8#@``````W'9F8&!@\##@
M``P8,````````````````';<`#@8&!@8&#P`````.!@8&!@8&!@8/!CP`&PX
M`````````````````````````````!@8<```;#@`?,9@.`S&?```````?`!\
MQL;^P,9\```\8#@`=L[&QL;.=@;\````,#`P_#`\>/`V'`````#<_O;FQL;&
MQL;<`````&PX`/[,&#!@QOX```````#<_O;FQL8&'```````````````````
M````````````````````````````````````````````````````````````
M````````````````````````````````````````````````````````````
M````````````````````````````````````````````````````````````
M````````````````````````````````````````````````````````````
M````````````````````````````````````````````````````````````
M````````````````````````````````````````````````````````````
M````````````````````````````````````````````````````````````
M````````````````````````````````````````````````````````````
M````````````````````````````````````````````````````````````
M`````````````````````````````````````````````'P`>`Q\S,S,=@``
M`!@P8`!X#'S,S,QV````$#AL`'@,?,S,S'8`````=MP`>`Q\S,S,=@````#,
MS`!X#'S,S,QV````.&PX`'@,?,S,S'8`````````;AE_V-C8;P`````8&``X
M&!@8&!@\,!X``&PX`'S&P,#`QGP````,&#``?,;&_L#&?`````````!\QL;^
MP,9\&!X``&QL`'S&QO[`QGP`````&!@`?,;&_L#&?`````P8,``X&!@8&!@\
M````&#QF`#@8&!@8&#P``````'P`.!@8&!@8/``````,?@Q\S,S,S,Q^````
M`````-QF9F9F9F8,>````'P`?,;&QL;&?`````#@8&!F9FQX;&;F#'@`$#AL
M`'S&QL;&QGP`````=MP`?,;&QL;&?`````!L;`!\QL;&QL9\````````&!@`
M?@`8&``````````&?,[6UM;F?,````````#,S,S,S,QV,!X`#!@P`,S,S,S,
MS'8````0.&P`S,S,S,S,=@````#,S`#,S,S,S,QV`````';<`,S,S,S,S'8`
=`````/P`S,S,S,S,=@```!@8````````````````
`
end
