# $FreeBSD: stable/10/share/syscons/fonts/iso07-8x14.fnt 86796 2001-11-22 23:39:06Z ache $
begin 644 iso07-8x14
M````````````````````````````````````````````````````````````
M````````````````````````````````````````````````````````````
M````````````````````````````````````````````````````````````
M````````````````````````````````````````````````````````````
M````````````````````````````````````````````````````````````
M````````````````````````````````````````````````````````````
M````````````````````````````````````````````````````````````
M````````````````````````````````````````````````````````````
M````````````````````````````````````````````````````````````
M````````````````````````````````````````````````````````````
M````````````````````&#P\/!@8`!@8`````&9F9B0```````````````!L
M;/YL;/YL;````!@8?,;"P'P&AL9\&!@`````PL8<.&#&A@```````#AL;#AV
MW,S,=@`````P,#!@```````````````,&#`P,#`P&`P``````#`8#`P,#`P8
M,```````````9CS_/&8````````````8&'X8&````````````````!@8&#``
M``````````#^````````````````````&!@````````"!@P8,&#`@```````
M.&S&QM;&QFPX```````8.'@8&!@8&'X``````'S&!@P8,&#&_@``````?,8&
M!CP&!L9\```````,'#QLS/X,#!X``````/[`P,#\!@;&?```````.&#`P/S&
MQL9\``````#^Q@8&#!@P,#```````'S&QL9\QL;&?```````?,;&QGX&!@QX
M`````````!@8```8&```````````&!@``!@8,`````````8,&#`P&`P&````
M``````!^``!^``````````!@,!@,#!@P8```````?,;&#!@8`!@8``````!\
MQL;&WM[<P'P``````!`X;,;&_L;&Q@``````_&9F9GQF9F;\```````\9L+`
MP,#"9CP``````/AL9F9F9F9L^```````_F9B:'AH8F;^``````#^9F)H>&A@
M8/```````#QFPL#`WL9F.@``````QL;&QO[&QL;&```````\&!@8&!@8&#P`
M`````!X,#`P,S,S,>```````YF9F;'AL9F;F``````#P8&!@8&!B9OX`````
M`,;N_O[6QL;&Q@``````QN;V_M[.QL;&``````!\QL;&QL;&QGP``````/QF
M9F9\8&!@\```````?,;&QL;&UMY\#`X```#\9F9F?&QF9N8``````'S&QF`X
M#,;&?```````?GY:&!@8&!@\``````#&QL;&QL;&QGP``````,;&QL;&QFPX
M$```````QL;&UM;6_NYL``````#&QFQ\.'QLQL8``````&9F9F8\&!@8/```
M````_L:&#!@P8L;^```````\,#`P,#`P,#P``````(#`X'`X'`X&`@``````
M/`P,#`P,#`P\```0.&S&``````````````````````````````#_8#`8````
M``````````````````!X#'S,S'8``````.!@8'AL9F9F?```````````?,;`
MP,9\```````<#`P\;,S,S'8``````````'S&_L#&?```````'#8R,'@P,#!X
M`````````';,S,S,?`S,>````.!@8&QV9F9FY@``````&!@`.!@8&!@\````
M```&!@`.!@8&!F9F/````.!@8&9L>&QFY@``````.!@8&!@8&!@\````````
M``#L_M;6UL8``````````-QF9F9F9@``````````?,;&QL9\`````````-QF
M9F9F?&!@8```````=LS,S,Q\#`P,````````W'9F8&#P``````````!\QG`<
MQGP``````!`P,/PP,#`V'```````````S,S,S,QV``````````#&QL;&;#@`
M`````````,;&UM;^;```````````QFPX.&S&`````````,;&QL;&?@8,^```
M`````/Z,.'#&_@``````#A@8&'`8&!@.```````8&!@8&!@8&!@``````'`8
M&!@.&!@8<````';<````````````````````````````````````````````
M````````````````````````````````````````````````````````````
M````````````````````````````````````````````````````````````
M````````````````````````````````````````````````````````````
M````````````````````````````````````````````````````````````
M````````````````````````````````````````````````````````````
M````````````````````````````````````````````````````````````
M````````````````````````````````````````````````````````````
M````````````````````````````````````````````````````````````
M````````````````````````````````````````````````````````````
M````````````````````````````````````````````````````````````
M```````P8&`P``````````````P&!@P``````````````#AL9&#P8&!@[/P`
M```````````````````````````````````````````8&!@8&``8&!@8&```
M`'S&8#ALQFPX#,9\``!F9@```````````````!AFPYFAH9G#9A@`````````
M`````````````````````#9LV&PV````````````_P,#``````````````!^
M````````````````````````````````````_P`````````X;&PX````````
M````````&!A^&!@`?@``````/&8,&#)^`````````#QF!AX&9CP`````````
M!@P8```````````````&#!C#````````````````P)"X;,;&_L;&Q@```!@8
M``````````````````"_L3`P/C`Q,3\``````+.S,S,_,S,S,P``````O)@8
M&!@8&!@\````````V&PV;-@``````````)ZS,S,S,S,S'@```&#@8F9L&#!@
MW(8,&#X```"SLS,S'@P,#!X``````)ZS(2$A(3,2,P````P(`&8`&!@8&!@.
M```````0.&S&QO[&QL8``````/QF9F9\9F9F_```````_F)@8&!@8&#P````
M```0.&S&QL;&QOX``````/YF8FAX:&)F_@``````_L:&#!@P8L;^``````#&
MQL;&_L;&QL8``````'S&QL;^QL;&?```````/!@8&!@8&!@\``````#F9F9L
M>&QF9N8``````!`X;,;&QL;&Q@``````QN[^_M;&QL;&``````#&YO;^WL[&
MQL8``````/Z"``!\``""_@``````?,;&QL;&QL9\``````#^QL;&QL;&QL8`
M`````/QF9F9\8&!@\`````````````````````````#^P&`P&#!@P/X`````
M`'Y^6A@8&!@8/```````9F9F9CP8&!@\```````\&'Z9F7X8&#P``````,;&
M;'PX?&S&Q@``````&-O;V]M^&!@\```````\9L/#P\-F).<`````PQ@8&!@8
M&!@8&````,,`9F9F9CP8&!@\```````X$`![SLS,S'L`````.!``?,;`>,#&
M?```````.!``W&9F9F9F!@8````X$``8&!@8&`X`````&,,``.=F9F9F/```
M````````>\[,S,Q[``````!\QL;&_,;&QOS`P```````PV8\&#QF0F8\``!\
M8#`8>,S,S,QX`````````'S&P'C`QGP```#\#!@P8,#`P,!X#`QX````````
MW&9F9F9F!@8````^8V-C?V-C8SX``````````!@8&!@8#@``````````YFQX
M;&;F```````X;`P,##9F9F8``````````&9F9F9F?V!@````````@L;&;&PX
M````_&#`>#!@P,#`?`8&?````````'S&QL;&?```````````_V9F9F9F````
M```````\9F9F9GQ@8````````#YCP&`X#,9\````````?\S,S,QX````````
M``!\,#`P-AP``````````.=F9F9F/```````````7-;6UM9\$!````````#&
M;#@X;,8``````````-;6UM;6?!`0````````9L/#V_]F``````##```8&!@8
M&`X``````,,``.=F9F9F/```````.!``?,;&QL9\```````X$`#G9F9F9CP`
=`````#@0`&;#P]O_9@``````````````````````
`
end
