# $FreeBSD: stable/10/share/syscons/fonts/iso04-wide-8x16.fnt 250553 2013-05-12 04:34:55Z eadler $
begin 644 iso04-wide-8x16
M````````````````````````````````````````````````````````````
M````````````````````````````````````````````````````````````
M````````````````````````````````````````````````````````````
M````````````````````````````````````````````````````````````
M````````````````````````````````````````````````````````````
M````````````````````````````````````````````````````````````
M````````````````````````````````````````````````````````````
M````````````````````````````````````````````````````````````
M````````````````````````````````````````````````````````````
M````````````````````````````````````````````````````````````
M````````````````````````````````````````````````````````````
M```````````````````````````````````````````````8/#P\/!@8&!@`
M&!@```#N[F;,`````````````````&QL;/[^;&QL_OYL;&P``!A^V]OH>#P>
M%QO;VWX8&```YJ;L#!@8,#!@;LK.`````#AL;&PX.&W-QL;+<P```#@X&#``
M````````````````#!@8,#`P,#`P,!@8#````#`8&`P,#`P,#`P8&#``````
M``!F9CS__SQF9@```````````!@8?GX8&``````````````````````X.!@P
M``````````!^?@```````````````````````#@X``````8&#`P8&#`P8&#`
MP`````!\QL[.UM;6UN;FQGP`````&#AX&!@8&!@8&!A^`````#QFP\,#!@P8
M,&##_P````#^Q@P8/`8#`P/#9CP`````'!P\/&QLS,W_#0P>`````/[`P,#\
MYL,#`\-F/``````\9L;`_.;#P\/#9CP`````_L8&#`P8&#`P,#`P`````#QF
MP\-F/&;#P\-F/``````\9L/#P\-G/P-C9CP``````````#@X`````#@X````
M```````X.``````X.!@P````!@P8,&!@,!@,!@```````````'Y^`'Y^````
M``````!@,!@,!@8,&#!@```````\9L/#`P8,&!@`&!@```````!^P\/?V]O>
MP,!\`````!`X?.[&QO[&QL;&Q@````#^8V-C8WYC8V-C8_X`````/&;#P\#`
MP,##PV8\`````/QF8V-C8V-C8V-F_`````#_8V%@9'QD8&!A8_\`````_V-A
M8&1\9&!@8&#X`````#QFP\/`P,_#P\-F/`````#&QL;&QO[&QL;&QL8`````
M/!@8&!@8&!@8&!@\``````\&!@8&!@8&QL;&?`````#C8V9F;'QL9F9C8^,`
M````\&!@8&!@8&!@86/_`````,/G___;V]O#P\/#PP````#&QN;F]O;>WL[.
MQL8`````/&;#P\/#P\/#PV8\`````/YC8V-C8WY@8&!@\``````\9L/#P\/#
MP\O/?CP&!P``_F-C8V-^;&9F9F;W`````'[#Q\!@/`8#X^/#?@````#_VYD8
M&!@8&!@8&#P`````QL;&QL;&QL;&QL9\`````,;&QL;&QL;&QGPX$`````##
MP\/#V]O;V]O_9F8`````QL9L;#@X.#AL;,;&`````,/#P\/G?CP8&!@8/```
M``#^QHP,&!@P,&!BQOX`````/#`P,#`P,#`P,#`\`````,#`8&`P,!@8#`P&
M!@`````\#`P,#`P,#`P,##P`````&#QFPP``````````````````````````
M`````/\``#@X,!@``````````````````````'P&?L;&QL9[`````.!@8&!^
M8V-C8V-CW@``````````?,;`P,#`QGP`````#@8&!G[&QL;&QL9[````````
M``!\QL;^P,#&?``````\9F9@\&!@8&!@8/```````````'O&QL;&QGX&QGP`
M`.!@8&!^8V-C8V-CXP``````&!@`.!@8&!@8&#P```````P,`!P,#`P,#`S,
MS'@``.!@8&!F9FQX;&9FY@`````X&!@8&!@8&!@8&#P``````````.;_V]O;
MP\/#``````````#<9F9F9F9F9@``````````?,;&QL;&QGP``````````-YC
M8V-C8V-^8/````````![QL;&QL;&?@8/````````WG-C8&!@8/``````````
M`'S&P'`<!L9\```````P,##\,#`P,#`V'```````````QL;&QL;&QGL`````
M`````,;&QL;N?#@0``````````##P]O;V]O_9@``````````QNY\.#A\[L8`
M`````````,/#9F8\&!@P,.````````#^Q@P8,&#&_@`````.&!@8&'!P&!@8
M&`X`````&!@8&!@8&!@8&!@8`````'`8&!@8'AX8&!@8<`````!VW```````
M````````````````````````````````````````````````````````````
M````````````````````````````````````````````````````````````
M````````````````````````````````````````````````````````````
M````````````````````````````````````````````````````````````
M````````````````````````````````````````````````````````````
M````````````````````````````````````````````````````````````
M````````````````````````````````````````````````````````````
M````````````````````````````````````````````````````````````
M````````````````````````````````````````````````````````````
M````````````````````````````````````````````````````````````
M````````````````````````````````````````````````````````````
M````````````````````````````````````````````````````````````
M``````````##_P```!`X?.[&QO[&QL;&SA@/````````YFQX>&QFY@``````
M_F-C8V-^;&9F9F;W&/``````@L9\QL;&QGS&@@``=MP`/!@8&!@8&!@8&#P`
M````\&!@8&!@8&!@86/_#CP``'S&8#ALQL9L.`S&?````&QL````````````
M`````&8\?L/'P&`\!@/CX\-^``!^`/]C86!D?&1@8&%C_P`````\9L/#P,#/
MP\/#9CP,>```_]N9&!L>/'C8&!@\``````````````!\?```````;#C^QHP,
M&!@P,&!BQOX``'P`````````````````````.&QL.```````````````````
M````?`9^QL;&QGL8#P``````````````````,!X```````#><V-@8&!@\!CP
M#!@P`````````````````````';<`#@8&!@8&!@\`````#@8&!@8&!@8&!@8
M/`QX`&PX```````````````````````````````````,>`````!L.`!\QL!P
M'`;&?````````'P`?,;&_L#`QGP`````/&`P`'O&QL;&QGX&QGP````P,##\
M,#QX\#`V'`````#<_N;&QL;&QL;&QMP``````&PX`/[&#!@P8,;^````````
M`-S^YL;&QL;&!AP``'P0.'SNQL;^QL;&QL8```P8(#A\[L;&_L;&QL;&```X
M;!`X?.[&QO[&QL;&Q@``=MP0.'SNQL;^QL;&QL8``&QL$#A\[L;&_L;&QL;&
M```X;#@`?.[&QO[&QL;&Q@`````_;,S,S/_,S,S,S,\`````/!@8&!@8&!@8
M&!@\,!YF/#QFP\/`P,#`P\-F/```#AC_8V%@9'QD8&!A8_\`````_V-A8&1\
M9&!@86/_&`]F)/]C86!D?&1@8&%C_P``&!C_8V%@9'QD8&!A8_\```X8/!@8
M&!@8&!@8&!@\```\9@`\&!@8&!@8&!@8/```?@`\&!@8&!@8&!@8&#P`````
M_&9C8V/S\V-C8V;\`````,;&YN;V]M[>SL[&Q@QX?@`\9L/#P\/#P\/#9CP`
M````XV-F9FQ\;&9F8V/C!CP\9@`\9L/#P\/#P\-F/```=MP`/&;#P\/#P\/#
M9CP``&9F/&;#P\/#P\/#PV8\``````````#&;#@X;,8```````$]9L?+R]O;
MV]/39KR`````QL;&QL;&QL;&QL9\&0X8,,;&QL;&QL;&QL;&?```.&P`QL;&
MQL;&QL;&QGP``,;&`,;&QL;&QL;&QL9\``!VW`#&QL;&QL;&QL;&?```_@#&
MQL;&QL;&QL;&QGP`````?,;&QMS&P\/#P\;,P```````?`!\!G[&QL;&>P``
M```,&#``?`9^QL;&QGL`````$#AL`'P&?L;&QL9[``````!VW`!\!G[&QL;&
M>P``````;&P`?`9^QL;&QGL`````.&PX`'P&?L;&QL9[``````````!N&QM_
MV-C8;P``````&!@`.!@8&!@8&#PP'````&PX`'S&P,#`P,9\``````P8,`!\
MQL;^P,#&?```````````?,;&_L#`QGPP'@```&QL`'S&QO[`P,9\`````!`X
M$`!\QL;^P,#&?``````,&#``.!@8&!@8&#P`````$#AL`#@8&!@8&!@\````
M````?``X&!@8&!@8/``````.!G\&?L;&QL;&QGL``````````-QF9F9F9F9F
M#'@`````?`!\QL;&QL;&?`````#@8&!@9F9L>&QF9N88\```$#AL`'S&QL;&
MQL9\``````!VW`!\QL;&QL;&?```````;&P`?,;&QL;&QGP``````````!@8
M`'X`&!@```````````9\SM[6UO;F?,``````````QL;&QL;&QGM@/```#!@P
M`,;&QL;&QL9[`````!`X;`#&QL;&QL;&>P``````;&P`QL;&QL;&QGL`````
M`';<`,;&QL;&QL9[````````?`#&QL;&QL;&>P```!@8````````````````
!````
`
end
