# $FreeBSD: stable/10/share/syscons/fonts/koi8-r-8x14.fnt 86796 2001-11-22 23:39:06Z ache $
begin 644 koi8-r-8x14
M````````````````````````````````````````````````````````````
M````````````````````````````````````````````````````````````
M````````````````````````````````````````````````````````````
M````````````````````````````````````````````````````````````
M````````````````````````````````````````````````````````````
M````````````````````````````````````````````````````````````
M````````````````````````````````````````````````````````````
M````````````````````````````````````````````````````````````
M````````````````````````````````````````````````````````````
M````````````````````````````````````````````````````````````
M```````````````````8/#P\&!@`&!@`````9F9F)```````````````;&S^
M;&QL_FQL````&!A\QL+`?`:&QGP8&```````PL8,&#!FQ@``````.&QL.';<
MS,QV`````#`P,&````````````````P8,#`P,#`8#```````,!@,#`P,#!@P
M`````````&8\_SQF````````````&!A^&!@`````````````````&!@8,```
M````````_@`````````````````````8&````````@8,&#!@P(````````!\
MQL[>]N;&QGP``````!@X>!@8&!@8?@``````?,8&#!@P8,;^``````!\Q@8&
M/`8&QGP```````P</&S,_@P,'@``````_L#`P/P&!L9\```````X8,#`_,;&
MQGP``````/[&!@P8,#`P,```````?,;&QGS&QL9\``````!\QL;&?@8&#'@`
M```````8&````!@8`````````!@8````&!@P```````&#!@P8#`8#`8`````
M`````'X``'X`````````8#`8#`8,&#!@``````!\QL8,&!@`&!@``````'S&
MQM[>WMS`?```````$#ALQL;^QL;&``````#\9F9F?&9F9OP``````#QFPL#`
MP,)F/```````^&QF9F9F9FSX``````#^9F)H>&AB9OX``````/YF8FAX:&!@
M\```````/&;"P,#>QF8Z``````#&QL;&_L;&QL8``````#P8&!@8&!@8/```
M````'@P,#`P,S,QX``````#F9FQL>&QL9N8``````/!@8&!@8&)F_@``````
MQN[^_M;&QL;&``````#&YO;^WL[&QL8``````#ALQL;&QL9L.```````_&9F
M9GQ@8&#P``````!\QL;&QM;>?`P.`````/QF9F9\;&9FY@``````?,;&8#@,
MQL9\``````!^?EH8&!@8&#P``````,;&QL;&QL;&?```````QL;&QL;&;#@0
M``````#&QL;&UM;^?&P``````,;&;#@X.&S&Q@``````9F9F9CP8&!@\````
M``#^QHP8,&#"QOX``````#PP,#`P,#`P/```````@,#@<#@<#@8"```````\
M#`P,#`P,##P````0.&S&`````````````````````````````/\`,#`8````
M`````````````````'@,?,S,=@``````X&!@>&QF9F9\``````````!\QL#`
MQGP``````!P,##QLS,S,=@``````````?,;^P,9\```````X;&1@\&!@8/``
M`````````';,S,Q\#,QX````X&!@;'9F9F;F```````8&``X&!@8&#P`````
M``8&``X&!@8&9F8\````X&!@9FQX;&;F```````X&!@8&!@8&#P`````````
M`.S^UM;6Q@``````````W&9F9F9F``````````!\QL;&QGP``````````-QF
M9F9\8&#P````````=LS,S'P,#!X```````#<=F9@8/```````````'S&<!S&
M?```````$#`P_#`P,#8<``````````#,S,S,S'8``````````&9F9F8\&```
M````````QL;6UOYL``````````#&;#@X;,8``````````,;&QL9^!@SX````
M````_LP8,&;^```````.&!@8<!@8&`X``````!@8&!@`&!@8&```````<!@8
M&`X8&!AP``````!VW`````````````````````````````````````````#_
M````````&!@8&!@8&!@8&!@8&!@`````````'Q@8&!@8&`````````#X&!@8
M&!@8&!@8&!@8&!\````````8&!@8&!@8^````````!@8&!@8&!@?&!@8&!@8
M&!@8&!@8&/@8&!@8&!@`````````_Q@8&!@8&!@8&!@8&!C_````````&!@8
M&!@8&/\8&!@8&!C_________``````````````````#_________________
M___________P\/#P\/#P\/#P\/#P\`\/#P\/#P\/#P\/#P\/$4011!%$$401
M1!%$$415JE6J5:I5JE6J5:I5JMUWW7?==]UWW7?==]UW```.&QL8&!@8&!@8
M&!@`````?'Q\?'Q\`````````````!@8``````````\,#`P,#.QL/!P`````
M````=MP`=MP`````````#!@P8#`8#`!^```````P&`P&#!@P`'X`````````
M`````````````!@8&!@8&!@8V-AP`````#AL;#@`````````````<-@P8,CX
M```````````````````8````````````&!@`?@`8&````````````/\`_P``
M`````#8V-C8V-C8V-C8V-C8V```````?&!\8&!@8&!@``&QL`'S&_,#&?```
M```````````_-C8V-C8V```````_,#<V-C8V-C8``````/@8^!@8&!@8&```
M``````#^-C8V-C8V``````#^!O8V-C8V-C88&!@8&!\8'P```````#8V-C8V
M-C8_````````-C8V-C8W,#\````````8&!@8&/@8^````````#8V-C8V-C;^
M````````-C8V-C;V!OX````````8&!@8&!\8'Q@8&!@8&#8V-C8V-C8W-C8V
M-C8V-C8V-C8W,#<V-C8V-C88&!@8&/@8^!@8&!@8&&QL`/[&P/#`P,;^````
M-C8V-C8V-O8V-C8V-C8V-C8V-O8&]C8V-C8V-@``````_P#_&!@8&!@8````
M`````/\V-C8V-C8``````/\`]S8V-C8V-A@8&!@8_P#_````````-C8V-C8V
M-O\````````V-C8V-O<`_P```````!@8&!@8_QC_&!@8&!@8-C8V-C8V-O\V
M-C8V-C8V-C8V-O<`]S8V-C8V-@``?(*ZJJ*BJKJ"?`````````"<MK;VMIP`
M`````````'S&QO[&Q@``````````_L#\QL;\``````````#,S,S,S/X&#```
M`````#QL;&QL_L:"````````?,;\P,9\`````````!!\UM;6UGP0.```````
M`/["P,#`P```````````QFPX.&S&``````````#&SM[VYL8````````,&,;.
MWO;FQ@``````````QLSXV,S&```````````^9F9F9L8``````````,;N_M;&
MQ@``````````QL;&_L;&``````````!^QL;&QOP``````````/[&QL;&Q@``
M````````?L9^-F;&``````````#\QL;&QOS`P````````'S&P,#&?```````
M````?EH8&!@8``````````#&QL;&QGX&?````````-;6?-;6U@``````````
M_,;\QL;\``````````#`P/S&QOP``````````,;&YK:VY@``````````?,8<
M!L9\``````````#6UM;6UOX``````````'S&'@;&?```````````UM;6UM;^
M`@8```````#&QL9^!@8``````````.!@?&9F?```````G+:VMO:VMK:<````
M```^9L;&QO[&QL8``````/[`P/S&QL;&_```````S,S,S,S,S,S^`@8````\
M;&QL;&QL;/[&@@```/[&P,#PP,#&_@``````?-;6UM;6?!`X``````#^QL#`
MP,#`P,```````,;&;#@X;,;&Q@``````QL;&SM[VYL;&``````S:QL;.WO;F
MQL8``````,;,V/#PV,S&Q@``````'C9FQL;&QL;&``````""QL;N[O[6QL8`
M`````,;&QL;^QL;&Q@``````?L;&QL;&QL;\``````#^QL;&QL;&QL8`````
M`'[&QL;&?C9FQ@``````_,;&QL;\P,#```````!\QL;`P,#&QGP``````'Y^
M6A@8&!@8&```````QL;&QL9^!L9\``````#6UM94?-;6UM8``````/S&QL;\
MQL;&_```````P,#`_,;&QL;\``````#&QL;FMK:VMN8``````'S&!AP&!L;&
M?`````#6UM;6UM;6UM;^``````!\Q@8>!@;&QGP`````UM;6UM;6UM;6_@(&
=````QL;&QL9^!@8&``````#@X&!\9F9F9GP`````
`
end
