# $FreeBSD: stable/10/share/vt/fonts/vgarom-thin-8x8.hex 271333 2014-09-09 20:36:56Z emaste $
# Height: 8
# Width: 8
0020:0000000000000000
0021:1038381010001000
0022:2424240000000000
0023:2424FF24FF242400
0024:107C807804F81000
0025:00C6CC183066C600
0026:3844385684847600
0027:2020400000000000
0028:1020404040201000
0029:2010080808102000
002A:004438FE38440000
002B:001010FE10100000
002C:0000000000101020
002D:000000FC00000000
002E:0000000000101000
002F:0204081020408000
0030:7C82868A92A27C00
0031:1030101010107C00
0032:788404104084FC00
0033:7884043804847800
0034:08182848FE081C00
0035:FC80F80404847800
0036:384080F884847800
0037:FC84081020202000
0038:7884847884847800
0039:7884847C04087000
003A:0010100000101000
003B:0010100000101020
003C:1020408040201000
003D:0000FC0000FC0000
003E:2010080408102000
003F:7884040810001000
0040:7C829E929E807800
0041:30488484FC848400
0042:FC42427C4242FC00
0043:3C42808080423C00
0044:F84442424244F800
0045:FE4248784842FE00
0046:FE4248784840E000
0047:3C4280808E423E00
0048:848484FC84848400
0049:3810101010103800
004A:0E04040444443800
004B:C24448704442C200
004C:E04040404042FE00
004D:82C6AA9282828200
004E:82C2A2928A868200
004F:3844828282443800
0050:FC42427C4040E000
0051:3844828282543804
0052:FC42427C4442C200
0053:3884807804847400
0054:FE92101010103800
0055:848484848484FC00
0056:8484848484483000
0057:82828292AAC68200
0058:8244281028448200
0059:8244281010103800
005A:FE8488102242FE00
005B:7840404040407800
005C:8040201008040200
005D:7808080808087800
005E:1028448200000000
005F:00000000000000FF
0060:2020100000000000
0061:000078047C847600
0062:C0407C424242DC00
0063:0000788480847800
0064:0C047C8484847600
0065:00007884FC807800
0066:384440E04040E000
0067:00007684847C04F8
0068:C0404C624242C200
0069:1000301010103800
006A:0400040404848478
006B:C04042447844C200
006C:3010101010103800
006D:0000EC9292928200
006E:0000F88484848400
006F:0000788484847800
0070:0000DC42427C40E0
0071:00007684847C040E
0072:0000DC624040E000
0073:00007C807804F800
0074:10107C1010120C00
0075:0000848484847600
0076:0000848484483000
0077:00008292AAC68200
0078:0000844830488400
0079:00008484847C04F8
007A:0000FC883044FC00
007B:182020C020201800
007C:1010100010101000
007D:6010100C10106000
007E:6498000000000000
00A0:0000000000000000
00A1:1010001038381000
00A2:10107E80807E1010
00A3:384444E04082FC00
00A5:4428107C107C1010
00A7:3E61384444388C78
00AA:3C44443A007E0000
00AB:0022448844220000
00AC:000000FC0C0C0000
00B0:3844443800000000
00B1:2020FC202000FC00
00B2:3048102078000000
00B5:00424242427C4080
00B6:7F92927212121200
00B7:0000001818000000
00BA:38444438007C0000
00BB:0044221122440000
00BC:4244485365498F01
00BD:424448566942840F
00BF:2000204080847800
00C4:82384482FE828200
00C5:30104482FE828200
00C6:3F4888FF88888F00
00C7:7884808478180478
00C9:0CFC40784040FC00
00D1:649884A494848400
00D6:4218244242241800
00DC:8400848484847800
00DF:007884F884F88080
00E0:C00078047C847A00
00E1:1C0078047C847A00
00E2:7E813C023E423D00
00E4:840078047C847A00
00E5:202078047C847A00
00E6:000067197F987700
00E7:0000788080780438
00E8:60007884FC807800
00E9:0C007884FC807800
00EA:7E813C427E403C00
00EB:84007884FC807800
00EC:6000301010103800
00ED:1800301010103800
00EE:7C82301010103800
00EF:4800301010103800
00F1:6498B8C484848400
00F2:C000788484847800
00F3:0810788484847800
00F4:7884788484847800
00F6:8400788484847800
00F7:202000F800202000
00F9:2010424242423C00
00FA:0810848484847A00
00FB:7E81424242423C00
00FC:0084008484847A00
00FF:84008484847C04F8
0192:0C12103810109060
0393:00FC848080808000
0398:384482FE82443800
03A3:FC8440204084FC00
03A6:F8207088887020F8
03A9:3844828228286C00
03B1:0000629488946200
03B4:1C10087C84847800
03B5:384080F880403800
03C0:00FE282828282800
03C3:00007E8888887000
03C4:0076880808080800
03C6:02047E89917E4080
2022:0000183C3C180000
203C:2424242424002400
207F:5844444444000000
20A7:F88484F882878283
2190:002040FE40200000
2191:10387C1010101000
2192:000804FE04080000
2193:101010107C381000
2194:002466FF66240000
2195:10387C10107C3810
21A8:10387C107C3810FE
2219:0000000018000000
221A:0704040464241C0C
221E:00007C92927C0000
221F:0000808080FE0000
2229:7884848484848400
2248:0064980064980000
2261:00FC00FC00FC0000
2264:102040201000FC00
2265:402010204000FC00
2302:001028448282FE00
2310:000000FCC0C00000
2320:0E11111010101010
2321:0808080808888870
2500:00000000FF000000
2502:1818181818181818
250C:000000001F181818
2510:00000000F8181818
2514:181818181F000000
2518:18181818F8000000
251C:181818181F181818
2524:18181818F8181818
252C:00000000FF181818
2534:18181818FF000000
253C:18181818FF181818
2550:0000FF00FF000000
2551:3636363636363636
2552:00001F181F181818
2553:000000003F363636
2554:00003F3037363636
2555:0000F818F8181818
2556:00000000FE363636
2557:0000FE06F6363636
2558:18181F181F000000
2559:363636363F000000
255A:363637303F000000
255B:1818F818F8000000
255C:36363636FE000000
255D:3636F606FE000000
255E:18181F181F181818
255F:3636363637363636
2560:3636373037363636
2561:1818F818F8181818
2562:36363636F6363636
2563:3636F606F6363636
2564:0000FF00FF181818
2565:00000000FF363636
2566:0000FF00F7363636
2567:1818FF00FF000000
2568:36363636FF000000
2569:3636F700FF000000
256A:1818FF18FF181818
256B:36363636FF363636
256C:3636F700F7363636
2580:FFFFFFFF00000000
2584:00000000FFFFFFFF
2588:FFFFFFFFFFFFFFFF
258C:F0F0F0F0F0F0F0F0
2590:0F0F0F0F0F0F0F0F
2591:2288228822882288
2592:55AA55AA55AA55AA
2593:77DD77DD77DD77DD
25A0:00003C3C3C3C0000
25AC:000000007E7E7E00
25B2:00183C7EFFFF0000
25BA:80E0F8FEF8E08000
25BC:00FFFF7E3C180000
25C4:020E3EFE3E0E0200
25CB:003C664242663C00
25D8:FFFFE7C3C3E7FFFF
25D9:FFC399BDBD99C3FF
263A:7E81A581BD99817E
263B:7EFFDBFFC3E7FF7E
263C:995A3CE7E73C5A99
2640:3E4141413E083E08
2642:1F03057D84848478
2660:101038ECFE7C107C
2663:387C38FED610107C
2665:6CFEFEFE7C381000
2666:10387CFE7C381000
266A:3F213F20202060C0
266C:3F213F21212366C0
