%!PS-Adobe-2.0 EPSF-2.0
%%Title: _.ps
%%Creator: gnuplot 3.7 patchlevel 1
%%CreationDate: $FreeBSD: stable/10/share/doc/papers/timecounter/intr.ps 116411 2003-06-15 18:49:46Z phk $
%%DocumentFonts: (atend)
%%BoundingBox: 50 50 266 201
%%Orientation: Portrait
%%EndComments
/gnudict 256 dict def
gnudict begin
/Color false def
/Solid false def
/gnulinewidth 5.000 def
/userlinewidth gnulinewidth def
/vshift -46 def
/dl {10 mul} def
/hpt_ 31.5 def
/vpt_ 31.5 def
/hpt hpt_ def
/vpt vpt_ def
/M {moveto} bind def
/L {lineto} bind def
/R {rmoveto} bind def
/V {rlineto} bind def
/vpt2 vpt 2 mul def
/hpt2 hpt 2 mul def
/Lshow { currentpoint stroke M
  0 vshift R show } def
/Rshow { currentpoint stroke M
  dup stringwidth pop neg vshift R show } def
/Cshow { currentpoint stroke M
  dup stringwidth pop -2 div vshift R show } def
/UP { dup vpt_ mul /vpt exch def hpt_ mul /hpt exch def
  /hpt2 hpt 2 mul def /vpt2 vpt 2 mul def } def
/DL { Color {setrgbcolor Solid {pop []} if 0 setdash }
 {pop pop pop Solid {pop []} if 0 setdash} ifelse } def
/BL { stroke userlinewidth 2 mul setlinewidth } def
/AL { stroke userlinewidth 2 div setlinewidth } def
/UL { dup gnulinewidth mul /userlinewidth exch def
      10 mul /udl exch def } def
/PL { stroke userlinewidth setlinewidth } def
/LTb { BL [] 0 0 0 DL } def
/LTa { AL [1 udl mul 2 udl mul] 0 setdash 0 0 0 setrgbcolor } def
/LT0 { PL [] 1 0 0 DL } def
/LT1 { PL [4 dl 2 dl] 0 1 0 DL } def
/LT2 { PL [2 dl 3 dl] 0 0 1 DL } def
/LT3 { PL [1 dl 1.5 dl] 1 0 1 DL } def
/LT4 { PL [5 dl 2 dl 1 dl 2 dl] 0 1 1 DL } def
/LT5 { PL [4 dl 3 dl 1 dl 3 dl] 1 1 0 DL } def
/LT6 { PL [2 dl 2 dl 2 dl 4 dl] 0 0 0 DL } def
/LT7 { PL [2 dl 2 dl 2 dl 2 dl 2 dl 4 dl] 1 0.3 0 DL } def
/LT8 { PL [2 dl 2 dl 2 dl 2 dl 2 dl 2 dl 2 dl 4 dl] 0.5 0.5 0.5 DL } def
/Pnt { stroke [] 0 setdash
   gsave 1 setlinecap M 0 0 V stroke grestore } def
/Dia { stroke [] 0 setdash 2 copy vpt add M
  hpt neg vpt neg V hpt vpt neg V
  hpt vpt V hpt neg vpt V closepath stroke
  Pnt } def
/Pls { stroke [] 0 setdash vpt sub M 0 vpt2 V
  currentpoint stroke M
  hpt neg vpt neg R hpt2 0 V stroke
  } def
/Box { stroke [] 0 setdash 2 copy exch hpt sub exch vpt add M
  0 vpt2 neg V hpt2 0 V 0 vpt2 V
  hpt2 neg 0 V closepath stroke
  Pnt } def
/Crs { stroke [] 0 setdash exch hpt sub exch vpt add M
  hpt2 vpt2 neg V currentpoint stroke M
  hpt2 neg 0 R hpt2 vpt2 V stroke } def
/TriU { stroke [] 0 setdash 2 copy vpt 1.12 mul add M
  hpt neg vpt -1.62 mul V
  hpt 2 mul 0 V
  hpt neg vpt 1.62 mul V closepath stroke
  Pnt  } def
/Star { 2 copy Pls Crs } def
/BoxF { stroke [] 0 setdash exch hpt sub exch vpt add M
  0 vpt2 neg V  hpt2 0 V  0 vpt2 V
  hpt2 neg 0 V  closepath fill } def
/TriUF { stroke [] 0 setdash vpt 1.12 mul add M
  hpt neg vpt -1.62 mul V
  hpt 2 mul 0 V
  hpt neg vpt 1.62 mul V closepath fill } def
/TriD { stroke [] 0 setdash 2 copy vpt 1.12 mul sub M
  hpt neg vpt 1.62 mul V
  hpt 2 mul 0 V
  hpt neg vpt -1.62 mul V closepath stroke
  Pnt  } def
/TriDF { stroke [] 0 setdash vpt 1.12 mul sub M
  hpt neg vpt 1.62 mul V
  hpt 2 mul 0 V
  hpt neg vpt -1.62 mul V closepath fill} def
/DiaF { stroke [] 0 setdash vpt add M
  hpt neg vpt neg V hpt vpt neg V
  hpt vpt V hpt neg vpt V closepath fill } def
/Pent { stroke [] 0 setdash 2 copy gsave
  translate 0 hpt M 4 {72 rotate 0 hpt L} repeat
  closepath stroke grestore Pnt } def
/PentF { stroke [] 0 setdash gsave
  translate 0 hpt M 4 {72 rotate 0 hpt L} repeat
  closepath fill grestore } def
/Circle { stroke [] 0 setdash 2 copy
  hpt 0 360 arc stroke Pnt } def
/CircleF { stroke [] 0 setdash hpt 0 360 arc fill } def
/C0 { BL [] 0 setdash 2 copy moveto vpt 90 450  arc } bind def
/C1 { BL [] 0 setdash 2 copy        moveto
       2 copy  vpt 0 90 arc closepath fill
               vpt 0 360 arc closepath } bind def
/C2 { BL [] 0 setdash 2 copy moveto
       2 copy  vpt 90 180 arc closepath fill
               vpt 0 360 arc closepath } bind def
/C3 { BL [] 0 setdash 2 copy moveto
       2 copy  vpt 0 180 arc closepath fill
               vpt 0 360 arc closepath } bind def
/C4 { BL [] 0 setdash 2 copy moveto
       2 copy  vpt 180 270 arc closepath fill
               vpt 0 360 arc closepath } bind def
/C5 { BL [] 0 setdash 2 copy moveto
       2 copy  vpt 0 90 arc
       2 copy moveto
       2 copy  vpt 180 270 arc closepath fill
               vpt 0 360 arc } bind def
/C6 { BL [] 0 setdash 2 copy moveto
      2 copy  vpt 90 270 arc closepath fill
              vpt 0 360 arc closepath } bind def
/C7 { BL [] 0 setdash 2 copy moveto
      2 copy  vpt 0 270 arc closepath fill
              vpt 0 360 arc closepath } bind def
/C8 { BL [] 0 setdash 2 copy moveto
      2 copy vpt 270 360 arc closepath fill
              vpt 0 360 arc closepath } bind def
/C9 { BL [] 0 setdash 2 copy moveto
      2 copy  vpt 270 450 arc closepath fill
              vpt 0 360 arc closepath } bind def
/C10 { BL [] 0 setdash 2 copy 2 copy moveto vpt 270 360 arc closepath fill
       2 copy moveto
       2 copy vpt 90 180 arc closepath fill
               vpt 0 360 arc closepath } bind def
/C11 { BL [] 0 setdash 2 copy moveto
       2 copy  vpt 0 180 arc closepath fill
       2 copy moveto
       2 copy  vpt 270 360 arc closepath fill
               vpt 0 360 arc closepath } bind def
/C12 { BL [] 0 setdash 2 copy moveto
       2 copy  vpt 180 360 arc closepath fill
               vpt 0 360 arc closepath } bind def
/C13 { BL [] 0 setdash  2 copy moveto
       2 copy  vpt 0 90 arc closepath fill
       2 copy moveto
       2 copy  vpt 180 360 arc closepath fill
               vpt 0 360 arc closepath } bind def
/C14 { BL [] 0 setdash 2 copy moveto
       2 copy  vpt 90 360 arc closepath fill
               vpt 0 360 arc } bind def
/C15 { BL [] 0 setdash 2 copy vpt 0 360 arc closepath fill
               vpt 0 360 arc closepath } bind def
/Rec   { newpath 4 2 roll moveto 1 index 0 rlineto 0 exch rlineto
       neg 0 rlineto closepath } bind def
/Square { dup Rec } bind def
/Bsquare { vpt sub exch vpt sub exch vpt2 Square } bind def
/S0 { BL [] 0 setdash 2 copy moveto 0 vpt rlineto BL Bsquare } bind def
/S1 { BL [] 0 setdash 2 copy vpt Square fill Bsquare } bind def
/S2 { BL [] 0 setdash 2 copy exch vpt sub exch vpt Square fill Bsquare } bind def
/S3 { BL [] 0 setdash 2 copy exch vpt sub exch vpt2 vpt Rec fill Bsquare } bind def
/S4 { BL [] 0 setdash 2 copy exch vpt sub exch vpt sub vpt Square fill Bsquare } bind def
/S5 { BL [] 0 setdash 2 copy 2 copy vpt Square fill
       exch vpt sub exch vpt sub vpt Square fill Bsquare } bind def
/S6 { BL [] 0 setdash 2 copy exch vpt sub exch vpt sub vpt vpt2 Rec fill Bsquare } bind def
/S7 { BL [] 0 setdash 2 copy exch vpt sub exch vpt sub vpt vpt2 Rec fill
       2 copy vpt Square fill
       Bsquare } bind def
/S8 { BL [] 0 setdash 2 copy vpt sub vpt Square fill Bsquare } bind def
/S9 { BL [] 0 setdash 2 copy vpt sub vpt vpt2 Rec fill Bsquare } bind def
/S10 { BL [] 0 setdash 2 copy vpt sub vpt Square fill 2 copy exch vpt sub exch vpt Square fill
       Bsquare } bind def
/S11 { BL [] 0 setdash 2 copy vpt sub vpt Square fill 2 copy exch vpt sub exch vpt2 vpt Rec fill
       Bsquare } bind def
/S12 { BL [] 0 setdash 2 copy exch vpt sub exch vpt sub vpt2 vpt Rec fill Bsquare } bind def
/S13 { BL [] 0 setdash 2 copy exch vpt sub exch vpt sub vpt2 vpt Rec fill
       2 copy vpt Square fill Bsquare } bind def
/S14 { BL [] 0 setdash 2 copy exch vpt sub exch vpt sub vpt2 vpt Rec fill
       2 copy exch vpt sub exch vpt Square fill Bsquare } bind def
/S15 { BL [] 0 setdash 2 copy Bsquare fill Bsquare } bind def
/D0 { gsave translate 45 rotate 0 0 S0 stroke grestore } bind def
/D1 { gsave translate 45 rotate 0 0 S1 stroke grestore } bind def
/D2 { gsave translate 45 rotate 0 0 S2 stroke grestore } bind def
/D3 { gsave translate 45 rotate 0 0 S3 stroke grestore } bind def
/D4 { gsave translate 45 rotate 0 0 S4 stroke grestore } bind def
/D5 { gsave translate 45 rotate 0 0 S5 stroke grestore } bind def
/D6 { gsave translate 45 rotate 0 0 S6 stroke grestore } bind def
/D7 { gsave translate 45 rotate 0 0 S7 stroke grestore } bind def
/D8 { gsave translate 45 rotate 0 0 S8 stroke grestore } bind def
/D9 { gsave translate 45 rotate 0 0 S9 stroke grestore } bind def
/D10 { gsave translate 45 rotate 0 0 S10 stroke grestore } bind def
/D11 { gsave translate 45 rotate 0 0 S11 stroke grestore } bind def
/D12 { gsave translate 45 rotate 0 0 S12 stroke grestore } bind def
/D13 { gsave translate 45 rotate 0 0 S13 stroke grestore } bind def
/D14 { gsave translate 45 rotate 0 0 S14 stroke grestore } bind def
/D15 { gsave translate 45 rotate 0 0 S15 stroke grestore } bind def
/DiaE { stroke [] 0 setdash vpt add M
  hpt neg vpt neg V hpt vpt neg V
  hpt vpt V hpt neg vpt V closepath stroke } def
/BoxE { stroke [] 0 setdash exch hpt sub exch vpt add M
  0 vpt2 neg V hpt2 0 V 0 vpt2 V
  hpt2 neg 0 V closepath stroke } def
/TriUE { stroke [] 0 setdash vpt 1.12 mul add M
  hpt neg vpt -1.62 mul V
  hpt 2 mul 0 V
  hpt neg vpt 1.62 mul V closepath stroke } def
/TriDE { stroke [] 0 setdash vpt 1.12 mul sub M
  hpt neg vpt 1.62 mul V
  hpt 2 mul 0 V
  hpt neg vpt -1.62 mul V closepath stroke } def
/PentE { stroke [] 0 setdash gsave
  translate 0 hpt M 4 {72 rotate 0 hpt L} repeat
  closepath stroke grestore } def
/CircE { stroke [] 0 setdash 
  hpt 0 360 arc stroke } def
/Opaque { gsave closepath 1 setgray fill grestore 0 setgray closepath } def
/DiaW { stroke [] 0 setdash vpt add M
  hpt neg vpt neg V hpt vpt neg V
  hpt vpt V hpt neg vpt V Opaque stroke } def
/BoxW { stroke [] 0 setdash exch hpt sub exch vpt add M
  0 vpt2 neg V hpt2 0 V 0 vpt2 V
  hpt2 neg 0 V Opaque stroke } def
/TriUW { stroke [] 0 setdash vpt 1.12 mul add M
  hpt neg vpt -1.62 mul V
  hpt 2 mul 0 V
  hpt neg vpt 1.62 mul V Opaque stroke } def
/TriDW { stroke [] 0 setdash vpt 1.12 mul sub M
  hpt neg vpt 1.62 mul V
  hpt 2 mul 0 V
  hpt neg vpt -1.62 mul V Opaque stroke } def
/PentW { stroke [] 0 setdash gsave
  translate 0 hpt M 4 {72 rotate 0 hpt L} repeat
  Opaque stroke grestore } def
/CircW { stroke [] 0 setdash 
  hpt 0 360 arc Opaque stroke } def
/BoxFill { gsave Rec 1 setgray fill grestore } def
end
%%EndProlog
gnudict begin
gsave
50 50 translate
0.050 0.050 scale
0 setgray
newpath
(Helvetica) findfont 140 scalefont setfont
1.000 UL
LTb
1.000 UL
LTa
882 420 M
3200 0 V
1.000 UL
LTb
882 420 M
63 0 V
3137 0 R
-63 0 V
798 420 M
(0) Rshow
1.000 UL
LTa
882 768 M
3200 0 V
1.000 UL
LTb
882 768 M
63 0 V
3137 0 R
-63 0 V
798 768 M
(20000) Rshow
1.000 UL
LTa
882 1116 M
3200 0 V
1.000 UL
LTb
882 1116 M
63 0 V
3137 0 R
-63 0 V
-3221 0 R
(40000) Rshow
1.000 UL
LTa
882 1464 M
3200 0 V
1.000 UL
LTb
882 1464 M
63 0 V
3137 0 R
-63 0 V
-3221 0 R
(60000) Rshow
1.000 UL
LTa
882 1812 M
3200 0 V
1.000 UL
LTb
882 1812 M
63 0 V
3137 0 R
-63 0 V
-3221 0 R
(80000) Rshow
1.000 UL
LTa
882 2160 M
3200 0 V
1.000 UL
LTb
882 2160 M
63 0 V
3137 0 R
-63 0 V
-3221 0 R
(100000) Rshow
1.000 UL
LTa
882 2508 M
3200 0 V
1.000 UL
LTb
882 2508 M
63 0 V
3137 0 R
-63 0 V
-3221 0 R
(120000) Rshow
1.000 UL
LTa
882 2856 M
3200 0 V
1.000 UL
LTb
882 2856 M
63 0 V
3137 0 R
-63 0 V
-3221 0 R
(140000) Rshow
1.000 UL
LTa
882 420 M
0 2436 V
1.000 UL
LTb
882 420 M
0 63 V
0 2373 R
0 -63 V
882 280 M
(0) Cshow
1.000 UL
LTa
1202 420 M
0 2436 V
1.000 UL
LTb
1202 420 M
0 63 V
0 2373 R
0 -63 V
0 -2513 R
(100) Cshow
1.000 UL
LTa
1522 420 M
0 2436 V
1.000 UL
LTb
1522 420 M
0 63 V
0 2373 R
0 -63 V
0 -2513 R
(200) Cshow
1.000 UL
LTa
1842 420 M
0 2436 V
1.000 UL
LTb
1842 420 M
0 63 V
0 2373 R
0 -63 V
0 -2513 R
(300) Cshow
1.000 UL
LTa
2162 420 M
0 2436 V
1.000 UL
LTb
2162 420 M
0 63 V
0 2373 R
0 -63 V
0 -2513 R
(400) Cshow
1.000 UL
LTa
2482 420 M
0 2436 V
1.000 UL
LTb
2482 420 M
0 63 V
0 2373 R
0 -63 V
0 -2513 R
(500) Cshow
1.000 UL
LTa
2802 420 M
0 2436 V
1.000 UL
LTb
2802 420 M
0 63 V
0 2373 R
0 -63 V
0 -2513 R
(600) Cshow
1.000 UL
LTa
3122 420 M
0 2436 V
1.000 UL
LTb
3122 420 M
0 63 V
0 2373 R
0 -63 V
0 -2513 R
(700) Cshow
1.000 UL
LTa
3442 420 M
0 2373 V
0 63 V
1.000 UL
LTb
3442 420 M
0 63 V
0 2373 R
0 -63 V
0 -2513 R
(800) Cshow
1.000 UL
LTa
3762 420 M
0 2373 V
0 63 V
1.000 UL
LTb
3762 420 M
0 63 V
0 2373 R
0 -63 V
0 -2513 R
(900) Cshow
1.000 UL
LTa
4082 420 M
0 2436 V
1.000 UL
LTb
4082 420 M
0 63 V
0 2373 R
0 -63 V
0 -2513 R
(1000) Cshow
1.000 UL
LTb
882 420 M
3200 0 V
0 2436 V
-3200 0 V
882 420 L
140 1638 M
currentpoint gsave translate 90 rotate 0 0 M
(nanoseconds) Cshow
grestore
2482 70 M
(seconds) Cshow
1.000 UL
LT0
883 628 M
3 589 V
3 -538 V
3 -63 V
4 51 V
3 -42 V
3 458 V
3 -424 V
3 19 V
4 -31 V
3 30 V
3 10 V
3 65 V
3 -89 V
4 -39 V
3 33 V
3 13 V
3 -10 V
3 23 V
3 -18 V
4 25 V
3 -17 V
3 232 V
3 -248 V
4 19 V
3 -35 V
3 8 V
3 -46 V
3 9 V
4 19 V
3 -17 V
3 9 V
3 243 V
3 -226 V
4 -41 V
3 38 V
3 0 V
3 5 V
3 -40 V
4 571 V
3 823 V
3 -1311 V
3 -44 V
3 7 V
4 4 V
3 9 V
3 11 V
3 13 V
3 -81 V
3 54 V
4 -27 V
3 30 V
3 -8 V
3 -21 V
4 -2 V
3 19 V
3 -14 V
3 13 V
3 -25 V
4 27 V
3 15 V
3 1888 V
3 -1558 V
3 -413 V
4 38 V
3 2 V
3 -6 V
3 15 V
3 -42 V
4 24 V
3 -27 V
3 19 V
3 -8 V
3 1236 V
3 -1232 V
4 3 V
3 -15 V
3 9 V
3 10 V
3 -27 V
4 -31 V
3 40 V
3 17 V
3 -20 V
3 2 V
4 3 V
3 15 V
3 -27 V
3 15 V
4 -37 V
3 42 V
3 1 V
3 -10 V
3 -10 V
4 -22 V
3 11 V
3 34 V
3 -33 V
3 -6 V
4 3 V
3 13 V
3 17 V
3 -30 V
3 13 V
4 15 V
3 -26 V
3 341 V
3 -321 V
3 26 V
4 -25 V
3 39 V
3 -26 V
3 -10 V
3 -23 V
4 14 V
3 24 V
3 -14 V
3 3 V
3 -32 V
3 41 V
4 -24 V
3 18 V
3 -28 V
3 38 V
4 -24 V
3 28 V
3 -30 V
3 5 V
3 -7 V
4 -7 V
3 9 V
3 37 V
3 -43 V
3 19 V
4 -9 V
3 -16 V
3 39 V
3 -22 V
3 -29 V
4 126 V
3 1183 V
3 -1283 V
3 -30 V
3 -6 V
4 20 V
3 -18 V
3 28 V
3 -15 V
3 3 V
3 34 V
4 -27 V
3 18 V
3 -48 V
3 55 V
3 -23 V
4 14 V
3 10 V
3 -21 V
3 22 V
4 -23 V
3 12 V
3 -15 V
3 25 V
3 -49 V
4 54 V
3 -30 V
3 27 V
3 -18 V
3 10 V
4 -24 V
3 58 V
3 -42 V
3 12 V
3 784 V
4 -765 V
3 -15 V
3 56 V
3 -64 V
3 2 V
4 39 V
3 -32 V
3 -11 V
3 26 V
3 -15 V
4 7 V
3 -30 V
3 46 V
3 -7 V
3 16 V
4 -39 V
3 -9 V
3 -7 V
3 22 V
3 -32 V
4 16 V
3 0 V
3 1 V
3 -13 V
3 14 V
4 10 V
3 -39 V
3 10 V
3 -7 V
3 29 V
4 -28 V
3 35 V
3 686 V
3 -531 V
3 -97 V
4 26 V
3 -31 V
3 -58 V
3 45 V
3 27 V
3 -38 V
4 30 V
3 -80 V
3 83 V
3 -7 V
3 20 V
4 -26 V
3 108 V
3 -101 V
3 27 V
4 -49 V
3 41 V
3 -24 V
3 4 V
3 7 V
4 -3 V
3 -7 V
3 26 V
3 -9 V
3 33 V
4 132 V
3 204 V
3 -416 V
3 26 V
3 -37 V
4 23 V
3 1264 V
3 -1299 V
3 7 V
3 -11 V
3 21 V
4 -40 V
3 41 V
3 -28 V
3 28 V
3 -24 V
4 18 V
3 -12 V
3 6 V
3 -3 V
4 5 V
3 -22 V
3 24 V
3 3 V
3 10 V
4 -26 V
3 26 V
3 -16 V
3 12 V
3 -16 V
4 8 V
3 -30 V
3 3 V
3 -1 V
3 28 V
4 0 V
3 -1 V
3 -3 V
3 -28 V
3 341 V
3 -287 V
4 -42 V
3 38 V
3 -22 V
3 20 V
3 -19 V
4 39 V
3 -24 V
3 16 V
3 -9 V
3 20 V
4 -18 V
3 -21 V
3 14 V
3 -37 V
3 47 V
4 -21 V
3 20 V
3 -36 V
3 38 V
4 8 V
3 -20 V
3 -6 V
3 5 V
3 -21 V
4 30 V
3 -29 V
3 5 V
3 -8 V
3 15 V
4 -18 V
3 17 V
3 138 V
3 949 V
3 -1087 V
4 -14 V
3 -4 V
3 17 V
3 -16 V
3 5 V
3 -16 V
4 15 V
3 -7 V
3 23 V
3 -37 V
4 43 V
3 -14 V
3 -2 V
3 -3 V
3 36 V
4 -66 V
3 41 V
3 8 V
3 -17 V
3 16 V
4 2 V
3 9 V
3 -34 V
3 50 V
3 -48 V
4 18 V
3 -10 V
3 6 V
3 -2 V
3 12 V
4 -23 V
3 782 V
3 -758 V
3 50 V
3 -31 V
4 27 V
3 -4 V
3 29 V
3 -32 V
3 -2 V
4 0 V
3 2 V
3 4 V
3 -7 V
3 -48 V
4 15 V
3 -15 V
3 6 V
3 -52 V
3 71 V
4 -15 V
3 12 V
3 -4 V
3 30 V
3 -28 V
4 19 V
3 -21 V
3 15 V
3 -17 V
3 11 V
4 1 V
3 -21 V
3 34 V
3 -27 V
3 140 V
4 1432 V
3 -1456 V
3 -52 V
3 59 V
3 -36 V
3 15 V
4 -9 V
3 15 V
3 -17 V
3 4 V
3 -2 V
4 4 V
3 -4 V
3 -2 V
3 -29 V
3 31 V
4 2 V
3 -2 V
3 21 V
3 -11 V
4 -6 V
3 16 V
3 13 V
3 -34 V
3 39 V
4 -13 V
currentpoint stroke M
3 -21 V
3 54 V
3 -33 V
3 24 V
4 -29 V
3 64 V
3 447 V
3 757 V
3 -1299 V
4 549 V
3 -428 V
3 -128 V
3 0 V
3 14 V
3 -40 V
4 1 V
3 23 V
3 -41 V
3 50 V
4 -21 V
3 20 V
3 -15 V
3 -1 V
3 -6 V
4 -1 V
3 -19 V
3 26 V
3 -9 V
3 21 V
4 -28 V
3 29 V
3 1 V
3 -8 V
3 1 V
4 0 V
3 -7 V
3 12 V
3 -21 V
3 19 V
3 -15 V
4 256 V
3 -228 V
3 2 V
3 -3 V
3 2 V
4 -25 V
3 38 V
3 -3 V
3 21 V
3 -28 V
4 42 V
3 -24 V
3 -10 V
3 -10 V
3 -7 V
4 19 V
3 -14 V
3 7 V
3 -29 V
4 -3 V
3 -4 V
3 28 V
3 -18 V
3 10 V
4 3 V
3 23 V
3 -51 V
3 15 V
3 -29 V
4 36 V
3 -19 V
3 18 V
3 4 V
3 220 V
4 835 V
3 -1079 V
3 -18 V
3 7 V
3 17 V
3 -11 V
4 3 V
3 8 V
3 -11 V
3 24 V
3 -9 V
4 -1 V
3 4 V
3 5 V
3 -15 V
4 6 V
3 8 V
3 26 V
3 -26 V
3 0 V
4 5 V
3 27 V
3 -24 V
3 -2 V
3 3 V
4 -2 V
3 22 V
3 -38 V
3 28 V
3 -36 V
4 29 V
3 -15 V
3 28 V
3 601 V
3 -596 V
4 -36 V
3 6 V
3 27 V
3 -1 V
3 -41 V
3 56 V
4 -67 V
3 16 V
3 -30 V
3 -7 V
3 2108 V
4 -2072 V
3 -28 V
3 10 V
3 20 V
4 1 V
3 -125 V
3 130 V
3 -46 V
3 5 V
4 33 V
3 8 V
3 -21 V
3 -9 V
3 56 V
4 -5 V
3 -38 V
3 36 V
3 -49 V
3 31 V
4 4 V
3 640 V
3 564 V
3 -1162 V
3 46 V
3 -53 V
4 40 V
3 -32 V
3 16 V
3 2 V
3 7 V
4 17 V
3 -26 V
3 4 V
3 -1 V
3 -19 V
4 18 V
3 -13 V
3 35 V
3 -15 V
4 -19 V
3 3 V
3 25 V
3 -34 V
3 37 V
4 -28 V
3 31 V
3 -18 V
3 31 V
3 -56 V
4 -4 V
3 -24 V
3 -30 V
3 20 V
3 33 V
4 1300 V
3 -1283 V
3 1 V
3 6 V
3 -18 V
3 20 V
4 -21 V
3 -10 V
3 35 V
3 -20 V
3 498 V
4 -391 V
3 -145 V
3 3 V
3 8 V
3 -58 V
4 50 V
3 -12 V
3 6 V
3 -1 V
4 -9 V
3 -1 V
3 5 V
3 10 V
3 14 V
4 -23 V
3 20 V
3 -2 V
3 -9 V
3 4 V
4 -1 V
3 -7 V
3 2 V
3 246 V
3 -249 V
4 10 V
3 9 V
3 -28 V
3 47 V
3 -16 V
3 -9 V
4 3 V
3 22 V
3 -26 V
3 21 V
3 -5 V
4 33 V
3 -50 V
3 -21 V
3 40 V
4 -18 V
3 14 V
3 -29 V
3 29 V
3 -24 V
4 29 V
3 -38 V
3 41 V
3 -24 V
3 41 V
4 -49 V
3 19 V
3 -14 V
3 10 V
3 -2 V
4 9 V
3 192 V
3 903 V
3 -1091 V
3 8 V
4 -21 V
3 16 V
3 -13 V
3 12 V
3 -9 V
3 18 V
4 -9 V
3 -7 V
3 4 V
3 12 V
4 -5 V
3 0 V
3 -5 V
3 14 V
3 -11 V
4 26 V
3 -34 V
3 -53 V
3 66 V
3 35 V
4 -39 V
3 16 V
3 4 V
3 -43 V
3 52 V
4 -36 V
3 22 V
3 -26 V
3 28 V
3 -15 V
4 199 V
3 -180 V
3 32 V
3 -19 V
3 -10 V
4 -11 V
3 -39 V
3 48 V
3 -26 V
3 20 V
3 24 V
4 -43 V
3 26 V
3 -36 V
3 22 V
3 3 V
4 -7 V
3 -12 V
3 14 V
3 -24 V
4 16 V
3 -6 V
3 4 V
3 13 V
3 -26 V
4 29 V
3 3 V
3 9 V
3 -16 V
3 4 V
4 22 V
3 -45 V
3 45 V
3 -31 V
3 1300 V
4 -1245 V
3 -27 V
3 29 V
3 -29 V
3 20 V
4 -20 V
3 37 V
3 -32 V
3 42 V
3 -40 V
4 23 V
3 -5 V
3 -70 V
3 32 V
3 24 V
4 -11 V
3 36 V
3 -12 V
3 -17 V
3 1 V
4 7 V
3 -1 V
3 -33 V
3 -3 V
3 -45 V
4 30 V
3 -10 V
3 16 V
3 -1 V
3 -1 V
4 -1 V
3 7 V
3 790 V
3 -631 V
3 -117 V
4 -9 V
3 28 V
3 -15 V
3 28 V
3 -45 V
3 36 V
4 -20 V
3 -22 V
3 47 V
3 -40 V
3 24 V
4 -33 V
3 50 V
3 -20 V
3 453 V
4 46 V
3 -544 V
3 -2 V
3 1 V
3 -6 V
4 -42 V
3 24 V
3 21 V
3 -8 V
3 -2 V
4 -22 V
3 30 V
3 -2 V
3 1 V
3 -20 V
4 -3 V
3 1284 V
3 -1273 V
3 18 V
3 -39 V
3 40 V
4 -3 V
3 -10 V
3 -3 V
3 -16 V
3 15 V
4 5 V
3 11 V
3 -18 V
3 -8 V
4 3 V
3 38 V
3 -43 V
3 24 V
3 -8 V
4 -16 V
3 21 V
3 -16 V
3 -10 V
3 -22 V
4 51 V
currentpoint stroke M
3 -29 V
3 22 V
3 -31 V
3 15 V
4 -10 V
3 30 V
3 -53 V
3 19 V
3 400 V
4 -415 V
3 3 V
3 15 V
3 -14 V
3 -1 V
3 3 V
4 -12 V
3 20 V
3 -2 V
3 -7 V
3 -22 V
4 19 V
3 -4 V
3 22 V
3 -3 V
3 -10 V
4 -1 V
3 -10 V
3 15 V
3 5 V
4 -18 V
3 7 V
3 30 V
3 -18 V
3 19 V
4 -34 V
3 11 V
3 5 V
3 -20 V
3 15 V
4 -31 V
3 34 V
3 224 V
3 1103 V
3 -1388 V
4 47 V
3 -14 V
3 5 V
3 5 V
3 -6 V
4 -14 V
3 22 V
3 -8 V
3 -22 V
3 13 V
4 17 V
3 3 V
3 -18 V
3 -12 V
3 7 V
4 2 V
3 -14 V
3 12 V
3 -2 V
3 -10 V
4 12 V
3 2 V
3 -9 V
3 15 V
3 -6 V
4 -3 V
3 4 V
3 3 V
3 12 V
3 -31 V
4 30 V
3 780 V
3 -707 V
3 -49 V
3 32 V
4 -1 V
3 -18 V
3 1 V
3 -14 V
3 22 V
4 7 V
3 -43 V
3 18 V
3 32 V
3 -17 V
3 1 V
4 -29 V
3 7 V
3 33 V
3 -14 V
4 -35 V
3 -6 V
3 -24 V
3 23 V
3 -6 V
4 -4 V
3 15 V
3 -37 V
3 2 V
3 5 V
4 -9 V
3 29 V
3 -26 V
3 11 V
3 728 V
4 -606 V
3 -32 V
3 -16 V
3 10 V
3 -12 V
3 -2 V
4 28 V
3 -13 V
3 -26 V
3 9 V
4 5 V
3 14 V
3 -18 V
3 32 V
3 -16 V
4 -7 V
3 -20 V
3 24 V
3 -24 V
3 30 V
4 -51 V
3 45 V
3 516 V
3 -101 V
3 -450 V
4 20 V
3 -10 V
3 -20 V
3 7 V
3 1 V
4 3 V
3 13 V
3 45 V
3 1128 V
3 -1227 V
4 -52 V
3 -5 V
3 42 V
3 -11 V
3 15 V
4 -12 V
3 26 V
3 -18 V
3 3 V
3 -10 V
4 -49 V
3 45 V
3 -1 V
3 28 V
3 -22 V
4 1 V
3 1 V
3 -12 V
3 26 V
3 -20 V
4 3 V
3 22 V
3 -20 V
3 9 V
3 -32 V
4 28 V
3 -27 V
3 18 V
3 -9 V
3 14 V
4 -30 V
3 1081 V
3 268 V
3 -1320 V
3 -15 V
4 10 V
3 -20 V
3 44 V
3 -18 V
3 -5 V
3 -17 V
4 10 V
3 5 V
3 -4 V
3 -3 V
3 -9 V
4 4 V
3 9 V
3 12 V
3 -15 V
4 12 V
3 -28 V
3 16 V
3 46 V
3 -45 V
stroke
grestore
end
showpage
%%Trailer
%%DocumentFonts: Helvetica
