#FIG 3.2
# ----------------------------------------------------------------------------
# "THE BEER-WARE LICENSE" (Revision 42):
# <phk@FreeBSD.ORG> wrote this file.  As long as you retain this notice you
# can do whatever you want with this stuff. If we meet some day, and you think
# this stuff is worth it, you can buy me a beer in return.   Poul-Henning Kamp
# ----------------------------------------------------------------------------
#
# $FreeBSD: stable/10/share/examples/BSD_daemon/beastie.fig 73489 2001-03-04 09:13:17Z phk $
#
Landscape
Center
Inches
A4      
100.00
Single
-2
1200 2
1 1 0 1 0 0 47 0 20 0.000 1 6.0388 2748 2543 130 238 2748 2543 2878 2305
1 1 0 1 0 7 46 0 20 0.000 1 6.1087 2738 2495 55 105 2738 2495 2793 2495
1 1 0 1 0 0 47 0 20 0.000 1 6.0388 3291 2663 179 279 3291 2663 3470 2384
1 1 0 1 0 7 46 0 20 0.000 1 6.1087 3260 2603 55 105 3260 2603 3315 2603
3 0 0 3 0 7 49 0 -1 0.000 0 0 0 16
	 4102 4658 4050 4695 4005 4703 3933 4706 3881 4706 3821 4688
	 3746 4658 3671 4601 3615 4556 3536 4515 3450 4481 3333 4463
	 3228 4459 3127 4481 3086 4511 2981 4574
	 0.000 1.000 1.000 1.000 1.000 1.000 1.000 1.000
	 1.000 1.000 1.000 1.000 1.000 1.000 1.000 0.000
3 1 0 3 0 20 50 0 20 0.000 0 0 0 18
	 2628 4864 2636 4898 2666 4928 2696 4939 2745 4943 2782 4950
	 2812 4943 2895 4928 2943 4894 2973 4860 3011 4804 3052 4751
	 3078 4729 3078 4695 3067 4661 3052 4628 3030 4594 3003 4553
	 1.000 1.000 1.000 1.000 1.000 1.000 1.000 1.000
	 1.000 1.000 1.000 1.000 1.000 1.000 1.000 1.000
	 1.000 1.000
3 1 0 3 0 20 47 0 20 0.000 0 0 0 21
	 2250 4691 2302 4766 2358 4819 2403 4856 2478 4868 2565 4871
	 2640 4856 2726 4834 2778 4808 2835 4748 2910 4665 2970 4594
	 3000 4538 2996 4474 2985 4399 2925 4346 2868 4313 2801 4290
	 2733 4290 2673 4305 2632 4346
	 1.000 1.000 1.000 1.000 1.000 1.000 1.000 1.000
	 1.000 1.000 1.000 1.000 1.000 1.000 1.000 1.000
	 1.000 1.000 1.000 1.000 1.000
3 1 0 3 0 20 46 0 20 0.000 0 0 0 19
	 2287 4215 2231 4238 2182 4264 2141 4305 2096 4391 2096 4455
	 2092 4534 2122 4598 2208 4665 2272 4680 2377 4688 2460 4691
	 2561 4643 2636 4571 2651 4511 2658 4459 2632 4361 2591 4305
	 2505 4256
	 1.000 1.000 1.000 1.000 1.000 1.000 1.000 1.000
	 1.000 1.000 1.000 1.000 1.000 1.000 1.000 1.000
	 1.000 1.000 1.000
3 1 0 3 0 20 45 0 20 0.000 0 0 0 20
	 2250 4088 2242 4054 2257 3986 2310 3938 2366 3908 2441 3893
	 2508 3893 2568 3889 2621 3896 2670 3919 2741 3975 2763 4031
	 2775 4099 2771 4200 2715 4260 2617 4290 2490 4294 2377 4283
	 2302 4223 2253 4140
	 1.000 1.000 1.000 1.000 1.000 1.000 1.000 1.000
	 1.000 1.000 1.000 1.000 1.000 1.000 1.000 1.000
	 1.000 1.000 1.000 1.000
3 0 0 3 0 7 49 0 -1 0.000 0 0 0 22
	 2940 2986 2861 2930 2771 2915 2677 2919 2595 2960 2546 3020
	 2531 3106 2535 3185 2583 3260 2647 3305 2718 3335 2805 3342
	 2880 3342 2955 3331 3007 3320 3045 3324 3093 3357 3165 3350
	 3202 3339 3210 3279 3195 3211 3157 3181
	 0.000 1.000 1.000 1.000 1.000 1.000 1.000 1.000
	 1.000 1.000 1.000 1.000 1.000 1.000 1.000 1.000
	 1.000 1.000 1.000 1.000 1.000 0.000
3 0 0 3 0 7 50 0 -1 0.000 0 0 0 8
	 2891 5190 2947 5209 3000 5228 3056 5235 3101 5239 3146 5239
	 3187 5239 3187 5235
	 0.000 1.000 1.000 1.000 1.000 1.000 1.000 0.000
3 0 0 3 0 7 50 0 -1 0.000 0 0 0 8
	 2876 5202 2951 5306 3015 5351 3108 5404 3176 5419 3240 5434
	 3315 5438 3352 5434
	 0.000 1.000 1.000 1.000 1.000 1.000 1.000 0.000
3 0 0 3 0 7 50 0 -1 0.000 0 0 0 14
	 3161 5427 3326 5528 3416 5546 3540 5565 3637 5535 3753 5501
	 3862 5464 4005 5449 4132 5434 4293 5359 4421 5303 4533 5258
	 4597 5198 4661 5093
	 0.000 1.000 1.000 1.000 1.000 1.000 1.000 1.000
	 1.000 1.000 1.000 1.000 1.000 0.000
3 1 0 3 0 31 48 0 20 0.000 0 0 0 22
	 3851 5483 4050 5625 4166 5696 4278 5768 4372 5831 4413 5854
	 4447 5850 4473 5835 4488 5813 4515 5779 4526 5749 4522 5704
	 4503 5678 4462 5648 4413 5618 4331 5565 4252 5513 4211 5494
	 4121 5426 4121 5426 3993 5445 3866 5464
	 1.000 1.000 1.000 1.000 1.000 1.000 1.000 1.000
	 1.000 1.000 1.000 1.000 1.000 1.000 1.000 1.000
	 1.000 1.000 1.000 1.000 1.000 1.000
3 1 0 3 0 13 51 0 20 0.000 0 0 0 55
	 2291 6462 2420 6447 2549 6444 2672 6444 2774 6441 2849 6387
	 2951 6357 3026 6321 3068 6294 3059 6210 3026 6153 2996 6063
	 2981 5991 3017 5991 3077 6030 3113 6075 3179 6057 3251 6060
	 3308 6063 3347 6096 3392 6150 3455 6132 3500 6135 3521 6186
	 3536 6255 3539 6309 3563 6237 3593 6159 3629 6090 3692 6060
	 3764 6054 3827 6069 3893 6111 3956 6159 3980 6204 3983 6156
	 4022 6138 4109 6138 4199 6132 4283 6102 4346 6081 4421 6042
	 4466 6144 4523 6264 4583 6402 4625 6546 4667 6663 4682 6717
	 4520 6837 4004 7044 3467 7131 2816 7128 2456 7047 2246 6816
	 2006 6510
	 1.000 1.000 1.000 1.000 1.000 1.000 1.000 1.000
	 1.000 1.000 1.000 1.000 1.000 1.000 1.000 1.000
	 1.000 1.000 1.000 1.000 1.000 1.000 1.000 1.000
	 1.000 1.000 1.000 1.000 1.000 1.000 1.000 1.000
	 1.000 1.000 1.000 1.000 1.000 1.000 1.000 1.000
	 1.000 1.000 1.000 1.000 1.000 1.000 1.000 1.000
	 1.000 1.000 1.000 1.000 1.000 1.000 1.000
3 1 0 3 0 7 49 0 20 0.000 0 0 0 13
	 3168 2255 3315 2009 3424 1894 3629 1784 3784 1943 3806 2158
	 3786 2470 3693 2773 3553 2975 3328 3070 3103 2971 3034 2731
	 3043 2543
	 1.000 1.000 1.000 1.000 1.000 1.000 1.000 1.000
	 1.000 1.000 1.000 1.000 1.000
3 0 0 3 0 7 45 0 -1 0.000 0 0 0 7
	 1481 6669 1601 6744 1744 6777 1919 6787 2111 6780 2363 6769
	 2327 6771
	 0.000 1.000 1.000 1.000 1.000 1.000 0.000
3 1 0 3 0 7 44 0 20 0.000 0 0 0 36
	 2294 6825 2258 6885 2252 6930 2252 6993 2258 7044 2288 7092
	 2462 7179 2618 7215 2900 7233 3104 7242 3407 7254 3617 7236
	 3926 7194 4094 7155 4280 7086 4505 6987 4637 6927 4676 6906
	 4697 6861 4697 6822 4691 6783 4691 6738 4679 6669 4553 6741
	 4358 6834 4220 6879 4037 6930 3770 6978 3560 6993 3338 7002
	 2957 7011 2666 6993 2522 6960 2414 6921 2363 6876 2315 6843
	 1.000 1.000 1.000 1.000 1.000 1.000 1.000 1.000
	 1.000 1.000 1.000 1.000 1.000 1.000 1.000 1.000
	 1.000 1.000 1.000 1.000 1.000 1.000 1.000 1.000
	 1.000 1.000 1.000 1.000 1.000 1.000 1.000 1.000
	 1.000 1.000 1.000 1.000
3 1 0 3 0 7 49 0 20 0.000 0 0 0 21
	 2504 6663 2474 6609 2408 6552 2339 6501 2243 6477 2138 6471
	 2006 6480 1874 6510 1669 6567 1475 6654 1418 6711 1397 6762
	 1412 6843 1445 6921 1523 6978 1637 7017 1781 7029 1946 7032
	 2069 7038 2177 7038 2321 7038
	 1.000 1.000 1.000 1.000 1.000 1.000 1.000 1.000
	 1.000 1.000 1.000 1.000 1.000 1.000 1.000 1.000
	 1.000 1.000 1.000 1.000 1.000
3 0 0 3 3 7 43 0 -1 0.000 0 0 0 3
	 3599 6276 3776 6291 3959 6330
	 0.000 1.000 0.000
3 1 0 2 0 7 43 0 20 0.000 0 0 0 14
	 4232 6357 4280 6294 4331 6276 4373 6282 4415 6315 4451 6369
	 4445 6444 4424 6516 4367 6567 4304 6561 4253 6531 4223 6501
	 4214 6456 4220 6399
	 1.000 1.000 1.000 1.000 1.000 1.000 1.000 1.000
	 1.000 1.000 1.000 1.000 1.000 1.000
3 0 0 3 0 7 45 0 -1 0.000 0 0 0 7
	 3533 6267 3542 6357 3524 6399 3491 6435 3428 6459 3309 6482
	 3059 6582
	 0.000 1.000 1.000 1.000 1.000 1.000 0.000
3 0 0 3 3 7 43 0 -1 0.000 0 0 0 3
	 3440 6504 3544 6502 3653 6537
	 0.000 1.000 0.000
3 0 0 3 3 7 43 0 -1 0.000 0 0 0 3
	 3248 6546 3359 6552 3470 6603
	 0.000 1.000 0.000
3 0 0 3 3 7 43 0 -1 0.000 0 0 0 3
	 3560 6402 3755 6417 3904 6454
	 0.000 1.000 0.000
3 0 0 3 3 7 43 0 -1 0.000 0 0 0 4
	 2861 6429 2861 6429 2979 6447 3122 6504
	 0.000 1.000 1.000 0.000
3 0 0 3 3 7 43 0 -1 0.000 0 0 0 3
	 2594 6492 2769 6497 2972 6546
	 0.000 1.000 0.000
3 0 0 3 3 7 43 0 -1 0.000 0 0 0 3
	 3023 6360 3173 6383 3335 6438
	 0.000 1.000 0.000
3 0 0 3 0 7 45 0 -1 0.000 0 0 0 8
	 3983 6181 3998 6342 4001 6447 3971 6504 3887 6528 3758 6567
	 3599 6588 3339 6707
	 0.000 1.000 1.000 1.000 1.000 1.000 1.000 0.000
3 0 0 3 3 7 43 0 -1 0.000 0 0 0 3
	 3095 6246 3240 6248 3410 6306
	 0.000 1.000 0.000
3 1 0 3 0 7 46 0 20 0.000 0 0 0 17
	 2291 6976 2265 6844 2375 6738 2450 6702 2561 6645 2666 6612
	 2795 6588 2915 6579 3029 6585 3152 6612 3239 6645 3320 6705
	 3389 6786 3422 6876 3440 6984 3437 7056 2957 7152
	 1.000 1.000 1.000 1.000 1.000 1.000 1.000 1.000
	 1.000 1.000 1.000 1.000 1.000 1.000 1.000 1.000
	 1.000
3 0 0 4 0 7 49 0 -1 0.000 0 0 0 18
	 2498 3459 2578 3459 2613 3489 2673 3554 2728 3614 2793 3669
	 2853 3739 2948 3799 3053 3854 3173 3879 3328 3884 3453 3864
	 3583 3799 3688 3749 3818 3669 3858 3614 3943 3609 3983 3609
	 0.000 1.000 1.000 1.000 1.000 1.000 1.000 1.000
	 1.000 1.000 1.000 1.000 1.000 1.000 1.000 1.000
	 1.000 0.000
3 1 0 3 0 7 49 0 20 0.000 0 0 0 17
	 2786 2845 2877 2727 2925 2661 3009 2376 3075 2175 3131 2050
	 3174 1929 3192 1869 3114 1746 2940 1824 2871 1890 2712 2103
	 2598 2340 2562 2427 2538 2709 2616 2814 2679 2850
	 1.000 1.000 1.000 1.000 1.000 1.000 1.000 1.000
	 1.000 1.000 1.000 1.000 1.000 1.000 1.000 1.000
	 1.000
3 1 0 3 0 20 52 0 20 0.000 0 0 0 142
	 2136 3087 2170 2963 2229 2861 2391 2682 2418 2498 2498 2228
	 2476 2126 2452 2000 2401 1725 2407 1577 2476 1395 2483 1365
	 2719 1094 2978 878 3235 725 3394 659 3490 731 3394 806
	 3277 932 3166 1080 3112 1163 3103 1253 3112 1364 3151 1425
	 3235 1418 3397 1334 3616 1277 3871 1265 4150 1298 4628 1478
	 4793 1646 4861 1725 5006 1706 5273 1568 5288 1490 5281 1223
	 5141 998 5101 908 5189 866 5326 893 5465 1010 5708 1328
	 5789 1577 5836 1830 5765 2093 5513 2438 5207 2654 5056 2760
	 5078 2729 5072 3058 4988 3368 4829 3607 4565 3850 4502 3970
	 4486 4088 4511 4213 4589 4330 4643 4455 4679 4633 4688 4958
	 4667 5107 4607 5230 4613 5344 4733 5685 4928 5985 5221 6195
	 5570 6348 5993 6443 6480 6542 6773 6623 6966 6698 7141 6825
	 7206 6977 7208 7110 7062 7250 6923 7320 6513 7397 6481 7403
	 6518 7493 6468 7502 6120 7505 5571 7526 5298 7547 5241 7532
	 5298 7487 5958 7130 6174 6998 6249 6935 6291 6995 6342 7076
	 6368 7155 6408 7205 6608 7170 6756 7115 6878 7035 6873 6959
	 6750 6851 6543 6779 5985 6713 5568 6632 5271 6554 5003 6462
	 4821 6389 4673 6278 4545 6194 4431 6068 4371 6089 3675 6375
	 3016 5993 2997 5942 2859 5732 2802 5591 2798 5438 2820 5318
	 2873 5220 2883 5186 2856 5153 2778 5075 2768 4988 2791 4943
	 2701 4943 2661 4925 2633 4883 2577 4868 2273 4422 2457 4299
	 2763 4274 3001 4305 3128 4328 3203 4230 3216 4124 3173 4028
	 3081 3995 2986 3945 2880 3851 2733 3770 2634 3698 2493 3665
	 2334 3566 2221 3413 2166 3323 2133 3179
	 1.000 1.000 1.000 1.000 1.000 1.000 1.000 1.000
	 1.000 1.000 1.000 1.000 1.000 1.000 1.000 1.000
	 1.000 1.000 1.000 1.000 1.000 1.000 1.000 1.000
	 1.000 1.000 1.000 1.000 1.000 1.000 1.000 1.000
	 1.000 1.000 1.000 1.000 1.000 1.000 1.000 1.000
	 1.000 1.000 1.000 1.000 1.000 1.000 1.000 1.000
	 1.000 1.000 1.000 1.000 1.000 1.000 1.000 1.000
	 1.000 1.000 1.000 1.000 1.000 1.000 1.000 1.000
	 1.000 1.000 1.000 1.000 1.000 1.000 1.000 1.000
	 1.000 1.000 1.000 1.000 1.000 1.000 1.000 1.000
	 1.000 1.000 1.000 1.000 1.000 1.000 1.000 1.000
	 1.000 1.000 1.000 1.000 1.000 1.000 1.000 1.000
	 1.000 1.000 1.000 1.000 1.000 1.000 1.000 1.000
	 1.000 1.000 1.000 1.000 1.000 1.000 1.000 1.000
	 1.000 1.000 1.000 1.000 1.000 1.000 1.000 1.000
	 1.000 1.000 1.000 1.000 1.000 1.000 1.000 1.000
	 1.000 1.000 1.000 1.000 1.000 1.000 1.000 1.000
	 1.000 1.000 1.000 1.000 1.000 1.000
3 0 0 3 0 7 49 0 -1 0.000 0 0 0 5
	 3489 1649 3649 1554 3825 1575 3953 1675 4005 1902
	 0.000 1.000 1.000 1.000 0.000
3 0 0 3 0 7 49 0 -1 0.000 0 0 0 10
	 3278 1680 3254 1569 3149 1539 3009 1544 2883 1665 2696 1865
	 2564 2129 2505 2334 2441 2484 2379 2670
	 0.000 1.000 1.000 1.000 1.000 1.000 1.000 1.000
	 1.000 0.000
3 0 0 3 0 31 51 0 20 0.000 0 0 0 71
	 2452 4170 2238 4009 2122 3911 2078 3867 2096 3836 2128 3795
	 2148 3725 2153 3675 2151 3587 2131 3510 2101 3423 2013 3341
	 1954 3332 2041 3258 1914 3207 1843 3180 1773 3140 1668 3097
	 1557 3040 1621 3132 1671 3192 1718 3287 1753 3350 1783 3475
	 1836 3430 1891 3385 1943 3442 2003 3515 2021 3595 2023 3642
	 2006 3702 1953 3735 1921 3767 1873 3730 1833 3695 1791 3665
	 1738 3622 1669 3576 1731 3501 1731 3474 1529 3466 1222 3248
	 1344 3469 1433 3645 1446 3735 1468 3765 1503 3740 1563 3675
	 1616 3722 1703 3792 1758 3842 1786 3927 1718 3977 1518 4045
	 1229 3950 1297 3894 1364 3856 1357 3792 1147 3759 903 3564
	 884 3646 1008 3875 1218 4119 1413 4179 1641 4200 1796 4130
	 1926 4060 1956 4027 2076 4125 2216 4253 2332 4339
	 0.000 1.000 1.000 1.000 1.000 1.000 1.000 1.000
	 1.000 1.000 1.000 1.000 1.000 1.000 1.000 1.000
	 1.000 1.000 1.000 1.000 1.000 1.000 1.000 1.000
	 1.000 1.000 1.000 1.000 1.000 1.000 1.000 1.000
	 1.000 1.000 1.000 1.000 1.000 1.000 1.000 1.000
	 1.000 1.000 1.000 1.000 1.000 1.000 1.000 1.000
	 1.000 1.000 1.000 1.000 1.000 1.000 1.000 1.000
	 1.000 1.000 1.000 1.000 1.000 1.000 1.000 1.000
	 1.000 1.000 1.000 1.000 1.000 1.000 0.000
